{
    "parameters": {
        "initialState": "Idle",
        "lifecycleState": "Idle",
        "states": {
            "Idle": {
                "parameters": {
                    "name": "Idle"
                }
            },
            "Start": {
                "parameters": {
                    "name": "Start"
                }
            },
            "Accelerating": {
                "parameters": {
                    "name": "Accelerating",
                    "commands": {
                        "onEnter": {
                            "type": "SimpleResetCommand"
                        }
                    },
                    "movementRule": {
                        "type": "HorizontalAcceleratingMovementRule",
                        "parameters": {
                            "velocityMultiplierLimit": 0.2,
                            "duration": 0.6
                        }
                    }
                }
            },
            "Spinning": {
                "parameters": {
                    "name": "Spinning",
                    "commands": {
                        "onExit": {
                            "type": "SpinningExitCommand"
                        }
                    },
                    "movementRule": {
                        "type": "HorizontalLinearMovementRule",
                        "parameters": {
                            "velocityMultiplier": 0.2
                        }
                    }
                }
            },
            "Bringing": {
                "parameters": {
                    "name": "Bringing",
                    "commands": {
                        "onEnter": {
                            "type": "SegmentBringingEnterCommand"
                        }
                    },
                    "movementRule": {
                        "type": "HorizontalBringingMovementRule",
                        "parameters": {
                            "velocityMultiplier": 0.2
                        }
                    }
                }
            },
            "Bouncing": {
                "parameters": {
                    "name": "Bouncing",
                    "commands": {
                        "onEnter": {
                            "type": "BouncingEnterCommand"
                        }
                    },
                    "movementRule": {
                        "type": "HorizontalBouncingMovementRule",
                        "parameters": {
                            "velocityMultiplier": 0.2,
                            "duration": 1
                        }
                    }
                }
            },
            "End": {
                "parameters": {
                    "name": "End"
                }
            }
        },
        "transitions": [
            {
                "parameters": {
                    "fromState": "Idle",
                    "toState": "Start",
                    "event": "Idle->Start"
                }
            },
            {
                "parameters": {
                    "fromState": "Start",
                    "toState": "Accelerating",
                    "event": "Start->Accelerating",
                    "predicates": [
                        {
                            "type": "TruePredicate"
                        }
                    ]
                }
            },
            {
                "parameters": {
                    "fromState": "Accelerating",
                    "toState": "Spinning",
                    "event": "Accelerating->Spinning",
                    "predicates": [
                        {
                            "type": "SimpleCompletionPredicate"
                        }
                    ]
                }
            },
            {
                "parameters": {
                    "fromState": "Spinning",
                    "toState": "Bringing",
                    "event": "Spinning->Bringing",
                    "predicates": [
                        {
                            "type": "ResultTimePredicate",
                            "parameters": {
                                "duration": 1
                            }
                        }
                    ]
                }
            },
            {
                "parameters": {
                    "fromState": "Bringing",
                    "toState": "Bouncing",
                    "event": "Bringing->Bouncing",
                    "predicates": [
                        {
                            "type": "SimpleCompletionPredicate"
                        }
                    ]
                }
            },
            {
                "parameters": {
                    "fromState": "Bouncing",
                    "toState": "End",
                    "event": "Bouncing->End",
                    "predicates": [
                        {
                            "type": "SimpleCompletionPredicate"
                        }
                    ]
                }
            },
            {
                "parameters": {
                    "fromState": "End",
                    "toState": "Idle",
                    "event": "End->Idle",
                    "predicates": [
                        {
                            "type": "TruePredicate"
                        }
                    ]
                }
            }
        ]
    }
}