{
	"type": "HorizontalRectangleReel",
    "parameters": {
        "id": 5,
        "viewport": {
            "type": "RectangleViewport",
            "parameters": {
                "pivot": {
                    "x": -250,
                    "y": 200
                },
                "geometry": {
                    "type": "Rectangle",
                    "parameters": {
                        "x": 0,
                        "y": 0,
                        "width": 500,
                        "height": 100
                    }
                }
            }
        },
        "placementRule": {
            "type": "HorizontalRectanglePlacementRule"
        },
        "geometryCirculator": {
            "type": "HorizontalRectangleGeometryCirculator"
        },
        "overlapChecker": {
            "type": "HorizontalRectangleOverlapChecker"
        },
        "correctors": []
    }
}