{
  "lintOptions": {
    "typeCheck": true
  },
  "extends": "tslint:all",
  "rules": {
    // Don't want these
    "cyclomatic-complexity": false,
    "no-parameter-properties": false,
    "no-parameter-reassignment": false,
    // TODO: Enable stricter options for these
    "comment-format": [
        true,
        "check-space"
    ],
    "member-access": true,
    "only-arrow-functions": [
        true,
        "allow-declarations",
        "allow-named-functions"
    ],

    // TODO: Enable these
    "completed-docs": false,
    "no-any": false,
    "no-non-null-assertion": false,
    "no-null-keyword": false,
    "no-require-imports": false,
    "no-unbound-method": false,
    "no-unnecessary-qualifier": false,
    "no-use-before-declare": false,
    "no-void-expression": false,
    "prefer-function-over-method": false,
    "strict-type-predicates": false,
    "triple-equals": [true, "allow-undefined-check"],
    "typedef": false,

    "ban": [true,
      ["describe", "only"],
      ["it", "only"]
    ],

    "interface-name": false,
    "max-classes-per-file": false,
    "max-line-length": [true, 140],
    "member-ordering": [true,
      "public-before-private",
      "static-before-instance",
      "variables-before-functions"
    ],
    "newline-per-chained-call": false,
    "no-switch-case-fall-through": true,
    "strict-boolean-expressions": [true, "allow-boolean-or-undefined"],
    "variable-name": [true,
      "ban-keywords",
      "check-format",
      "allow-leading-underscore",
      "allow-pascal-case"
    ],

    "no-unused-variable": true,
    "no-magic-numbers": true,
    "no-default-export" : false,
    "switch-default": true,
    "newline-before-return": true,
    "file-header": false,
    "trailing-comma": false,
    "quotemark": [true, "single"],
    "indent": [true, "spaces", 4],
    "linebreak-style": [true, "CRLF"],


    "array-type":false,
    "no-empty":false,
    "no-unnecessary-class":false,
    "object-literal-sort-keys":false,
    "binary-expression-operand-order":false,
    "no-inferrable-types":false
  }
}
