{
  "__type__": "cc.AnimationClip",
  "_name": "i6",
  "_objFlags": 0,
  "_rawFiles": null,
  "_duration": 0.11666666666666667,
  "sample": 60,
  "speed": 1,
  "wrapMode": 1,
  "curveData": {
    "comps": {
      "cc.Sprite": {
        "spriteFrame": [
          {
            "frame": 0,
            "value": {
              "__uuid__": "29a888ad-11e6-4908-8a71-b86b41f45ef4"
            }
          },
          {
            "frame": 0.016666666666666666,
            "value": {
              "__uuid__": "29a888ad-11e6-4908-8a71-b86b41f45ef4"
            }
          },
          {
            "frame": 0.03333333333333333,
            "value": {
              "__uuid__": "29a888ad-11e6-4908-8a71-b86b41f45ef4"
            }
          },
          {
            "frame": 0.05,
            "value": {
              "__uuid__": "29a888ad-11e6-4908-8a71-b86b41f45ef4"
            }
          },
          {
            "frame": 0.06666666666666667,
            "value": {
              "__uuid__": "29a888ad-11e6-4908-8a71-b86b41f45ef4"
            }
          },
          {
            "frame": 0.08333333333333333,
            "value": {
              "__uuid__": "29a888ad-11e6-4908-8a71-b86b41f45ef4"
            }
          },
          {
            "frame": 0.1,
            "value": {
              "__uuid__": "29a888ad-11e6-4908-8a71-b86b41f45ef4"
            }
          }
        ]
      }
    },
    "props": {
      "scale": [
        {
          "frame": 0,
          "value": {
            "__type__": "cc.Vec2",
            "x": 1,
            "y": 1
          }
        },
        {
          "frame": 0.016666666666666666,
          "value": {
            "__type__": "cc.Vec2",
            "x": 1.1,
            "y": 1.1
          }
        },
        {
          "frame": 0.03333333333333333,
          "value": {
            "__type__": "cc.Vec2",
            "x": 1.2,
            "y": 1.2
          }
        },
        {
          "frame": 0.05,
          "value": {
            "__type__": "cc.Vec2",
            "x": 1.3,
            "y": 1.3
          }
        },
        {
          "frame": 0.06666666666666667,
          "value": {
            "__type__": "cc.Vec2",
            "x": 1.2,
            "y": 1.2
          }
        },
        {
          "frame": 0.08333333333333333,
          "value": {
            "__type__": "cc.Vec2",
            "x": 1.1,
            "y": 1.1
          }
        },
        {
          "frame": 0.1,
          "value": {
            "__type__": "cc.Vec2",
            "x": 1,
            "y": 1
          }
        }
      ]
    }
  },
  "events": []
}