{
    "events": [
        {
            "event": "bet",
            "context": {
                "total": 250,
                "betPerLine": 25,
                "paylines": [
                    [
                        1,
                        1,
                        1,
                        1,
                        1
                    ],
                    [
                        0,
                        0,
                        0,
                        0,
                        0
                    ],
                    [
                        2,
                        2,
                        2,
                        2,
                        2
                    ],
                    [
                        0,
                        1,
                        2,
                        1,
                        0
                    ],
                    [
                        2,
                        1,
                        0,
                        1,
                        2
                    ],
                    [
                        0,
                        0,
                        1,
                        2,
                        2
                    ],
                    [
                        2,
                        2,
                        1,
                        0,
                        0
                    ],
                    [
                        1,
                        2,
                        2,
                        2,
                        1
                    ],
                    [
                        1,
                        0,
                        0,
                        0,
                        1
                    ],
                    [
                        1,
                        0,
                        1,
                        2,
                        1
                    ]
                ],
                "maxWinCap": 0
            }
        },
        {
            "event": "gameStart",
            "context": {
                "totalBet": 250,
                "betPerLine": 25
            }
        },
        {
            "event": "spinStart",
            "context": {
                "symbols": [
                    "Pic1",
                    "Pic2",
                    "Pic3",
                    "Pic4",
                    "A",
                    "K",
                    "Q",
                    "J",
                    "Wild",
                    "Scatter"
                ],
                "symbolsPay": {
                    "line": [
                        "Pic1",
                        "Wild",
                        "Pic2",
                        "Pic3",
                        "Pic4",
                        "A",
                        "K",
                        "Q",
                        "J"
                    ],
                    "scatter": [
                        "Scatter"
                    ]
                },
                "wildSymbols": [
                    "Wild"
                ],
                "lineAlign": "left_right",
                "lineCoinciding": false,
                "assetsDir": "FlamingPearl"
            }
        },
        {
            "event": "playedSpin",
            "context": [
                [
                    "Q",
                    "K",
                    "A"
                ],
                [
                    "Q",
                    "Q",
                    "Q"
                ],
                [
                    "K",
                    "K",
                    "K"
                ],
                [
                    "A",
                    "A",
                    "A"
                ],
                [
                    "Q",
                    "A",
                    "K"
                ]
            ]
        },
        {
            "event": "gameEnd",
            "context": {
                "win": 0
            }
        },
        {
            "event": "gameRoundOver",
            "context": {
                "win": 0
            }
        }
    ],
    "platform": {
        "gameRound": {
            "id": 346868
        },
        "balance": 49750
    }
}