{
  "collision-matrix": [
    [
      true
    ]
  ],
  "design-resolution-height": 440,
  "design-resolution-width": 760,
  "excluded-modules": [],
  "facebook": {
    "appID": "",
    "audience": {
      "enable": false
    },
    "enable": false,
    "live": {
      "enable": false
    }
  },
  "fit-height": true,
  "fit-width": false,
  "group-list": [
    "default"
  ],
  "last-module-event-record-time": 0,
  "simulator-orientation": false,
  "simulator-resolution": {
    "height": 640,
    "width": 960
  },
  "use-customize-simulator": false,
  "use-project-simulator-setting": false
}