{
    "items": [
        {
            "id": 0,
            "drawOrder": 0,
            "basicGeometry": {
                "alias": "basic"
            },
            "frameGeometry": {
                "alias": "basic"
            },
            "animations": []
        },
        {
            "id": 1,
            "drawOrder": 0,
            "basicGeometry": {
                "alias": "basic"
            },
            "frameGeometry": {
                "alias": "basic"
            },
            "animations": []
        },
        {
            "id": 2,
            "drawOrder": 0,
            "basicGeometry": {
                "alias": "basic"
            },
            "frameGeometry": {
                "alias": "basic"
            },
            "animations": []
        },
        {
            "id": 3,
            "drawOrder": 0,
            "basicGeometry": {
                "alias": "basic"
            },
            "frameGeometry": {
                "alias": "basic"
            },
            "animations": []
        },
        {
            "id": 4,
            "drawOrder": 0,
            "basicGeometry": {
                "alias": "basic"
            },
            "frameGeometry": {
                "alias": "basic"
            },
            "animations": []
        },
        {
            "id": 5,
            "drawOrder": 0,
            "basicGeometry": {
                "alias": "basic"
            },
            "frameGeometry": {
                "alias": "basic"
            },
            "animations": []
        },
        {
            "id": 6,
            "drawOrder": 0,
            "basicGeometry": {
                "alias": "basic"
            },
            "frameGeometry": {
                "alias": "basic"
            },
            "animations": [{
                "feature": "winLine",
                "clipName": "i6"
            }]
        },
        {
            "id": 7,
            "drawOrder": 0,
            "basicGeometry": {
                "alias": "basic"
            },
            "frameGeometry": {
                "alias": "basic"
            },
            "animations": [{
                "feature": "winLine",
                "clipName": "i7"
            }]
        },
        {
            "id": 8,
            "drawOrder": 0,
            "basicGeometry": {
                "alias": "basic"
            },
            "frameGeometry": {
                "alias": "basic"
            },
            "animations": [{
                "feature": "winLine",
                "clipName": "i8"
            }]
        },
        {
            "id": 9,
            "drawOrder": 0,
            "basicGeometry": {
                "alias": "basic"
            },
            "frameGeometry": {
                "alias": "basic"
            },
            "animations": [{
                "feature": "winLine",
                "clipName": "i9"
            }]
        },
        {
            "id": 10,
            "drawOrder": 0,
            "basicGeometry": {
                "alias": "basic"
            },
            "frameGeometry": {
                "alias": "basic"
            },
            "animations": [{
                "feature": "winLine",
                "clipName": "i10"
            }]
        }
    ],
    "geometries": [
        {
            "name": "basic",
            "type": "Rectangle",
            "parameters": {
                "x": 0,
                "y": 0,
                "width": 100,
                "height": 100
            }
        }
    ]
}