{
    "itemsConfigurationPath": "resources/FlamingPearl/ReelsEngineConfiguration/ReelItems.json",
    "modes": [
        {
            "id": "RegularSpin",
            "configurationPath": "resources/FlamingPearl/ReelsEngineConfiguration/Modes/RegularSpin/ModeConfiguration.json",
            "fakeItemsConfigurationPath": "resources/FlamingPearl/ReelsEngineConfiguration/Modes/RegularSpin/FakeItems.json"
        },
        {
            "id": "FreeSpin",
            "configurationPath": "resources/FlamingPearl/ReelsEngineConfiguration/Modes/FreeSpin/ModeConfiguration.json",
            "fakeItemsConfigurationPath": "resources/FlamingPearl/ReelsEngineConfiguration/Modes/FreeSpin/FakeItems.json"
        }
    ],
    "screen": {
        "width": 1680,
        "height": 1050
    }
}