{
  "__type__": "cc.AnimationClip",
  "_name": "PIC1_ChinesePot",
  "_objFlags": 0,
  "_rawFiles": null,
  "_duration": 0.6666666666666666,
  "sample": 60,
  "speed": 0.6,
  "wrapMode": 1,
  "curveData": {
    "comps": {
      "cc.Sprite": {
        "spriteFrame": [
          {
            "frame": 0,
            "value": {
              "__uuid__": "fb28ae3b-cfba-458a-bb3b-d7b4f6b0db10"
            }
          },
          {
            "frame": 0.016666666666666666,
            "value": {
              "__uuid__": "fe9384ae-9925-4278-873e-941620c756b0"
            }
          },
          {
            "frame": 0.03333333333333333,
            "value": {
              "__uuid__": "d67fd9ca-8097-4f1e-a8ab-83a9cf592eec"
            }
          },
          {
            "frame": 0.05,
            "value": {
              "__uuid__": "53985afa-0508-456b-a846-5726eafe9495"
            }
          },
          {
            "frame": 0.06666666666666667,
            "value": {
              "__uuid__": "cd500318-e1bd-455f-a7f1-3ef28a60d044"
            }
          },
          {
            "frame": 0.08333333333333333,
            "value": {
              "__uuid__": "46f09749-0ee7-4b7d-b19e-a62865feaa02"
            }
          },
          {
            "frame": 0.1,
            "value": {
              "__uuid__": "b91d9c72-9c32-4488-a29a-365f1ca6a6b3"
            }
          },
          {
            "frame": 0.11666666666666667,
            "value": {
              "__uuid__": "e8737e13-ef28-4611-887d-24d1b95f192b"
            }
          },
          {
            "frame": 0.13333333333333333,
            "value": {
              "__uuid__": "c8d7286f-a4d1-47ae-99e6-8a81287c3b78"
            }
          },
          {
            "frame": 0.15,
            "value": {
              "__uuid__": "fa2c3efc-6cfb-40b9-9ec0-6ea69e62b8c3"
            }
          },
          {
            "frame": 0.16666666666666666,
            "value": {
              "__uuid__": "6133dc92-dce6-4ad4-9fd1-1a3b9f6a6bf8"
            }
          },
          {
            "frame": 0.18333333333333332,
            "value": {
              "__uuid__": "0f7ca539-90a1-44d1-9e02-66fed8906ddf"
            }
          },
          {
            "frame": 0.2,
            "value": {
              "__uuid__": "6a1ee650-831a-457d-9983-32728694c202"
            }
          },
          {
            "frame": 0.21666666666666667,
            "value": {
              "__uuid__": "f932e3f7-a506-49ee-8419-55e6de791c85"
            }
          },
          {
            "frame": 0.23333333333333334,
            "value": {
              "__uuid__": "c8557eba-0df6-4c21-98e5-e0747b1d18dd"
            }
          },
          {
            "frame": 0.25,
            "value": {
              "__uuid__": "6bbbf01b-f001-40ff-9519-918d149028a0"
            }
          },
          {
            "frame": 0.26666666666666666,
            "value": {
              "__uuid__": "ef997eff-ef8c-4891-a378-cc696f91e3f3"
            }
          },
          {
            "frame": 0.2833333333333333,
            "value": {
              "__uuid__": "60e081fc-9515-45e5-b2e2-9d1de7b5e15e"
            }
          },
          {
            "frame": 0.3,
            "value": {
              "__uuid__": "9d664514-1ee4-4e69-8eff-e7edef38d587"
            }
          },
          {
            "frame": 0.31666666666666665,
            "value": {
              "__uuid__": "9f3a1ce4-5139-4d94-92fb-7700dbc6b56a"
            }
          },
          {
            "frame": 0.3333333333333333,
            "value": {
              "__uuid__": "70860579-3d9c-4d3c-9641-5eb7b26bb880"
            }
          },
          {
            "frame": 0.35,
            "value": {
              "__uuid__": "55372a77-d1d3-4178-b325-a0117dab943f"
            }
          },
          {
            "frame": 0.36666666666666664,
            "value": {
              "__uuid__": "f4abdeca-999e-4469-9ea7-eefb0e995c62"
            }
          },
          {
            "frame": 0.38333333333333336,
            "value": {
              "__uuid__": "d6f4a67d-1828-47c4-9d68-76fefe8e7c69"
            }
          },
          {
            "frame": 0.4,
            "value": {
              "__uuid__": "b091ccee-844a-471f-8b59-fb4352986c4d"
            }
          },
          {
            "frame": 0.4166666666666667,
            "value": {
              "__uuid__": "1fa39179-00c9-4c70-8faa-bb7d89bd5eaa"
            }
          },
          {
            "frame": 0.43333333333333335,
            "value": {
              "__uuid__": "daab7c53-9242-43d0-b3d9-fdaa7e940710"
            }
          },
          {
            "frame": 0.45,
            "value": {
              "__uuid__": "e3071f6d-d5d7-4aec-b392-ecae533ad074"
            }
          },
          {
            "frame": 0.4666666666666667,
            "value": {
              "__uuid__": "2aae80c0-7b33-44d3-8226-0c68c67c7c5c"
            }
          },
          {
            "frame": 0.48333333333333334,
            "value": {
              "__uuid__": "8aa43ac7-5afe-4a00-8cbb-1461cacf68dc"
            }
          },
          {
            "frame": 0.5,
            "value": {
              "__uuid__": "c8142bd2-7923-437d-ae6f-e0f055021d0d"
            }
          },
          {
            "frame": 0.5166666666666667,
            "value": {
              "__uuid__": "43eeddb1-8c0c-49cd-a783-a3cbadaed273"
            }
          },
          {
            "frame": 0.5333333333333333,
            "value": {
              "__uuid__": "79c8c776-d9b5-4dfc-82e1-d0908d453215"
            }
          },
          {
            "frame": 0.55,
            "value": {
              "__uuid__": "c3f3e13c-b0e8-48ad-9fa8-5a96e9d85dc9"
            }
          },
          {
            "frame": 0.5666666666666667,
            "value": {
              "__uuid__": "32374239-1fd5-4fb0-8912-6f455168f82d"
            }
          },
          {
            "frame": 0.5833333333333334,
            "value": {
              "__uuid__": "b08c244f-fbf6-471a-b2d8-dffac433fb50"
            }
          },
          {
            "frame": 0.6,
            "value": {
              "__uuid__": "935f9d08-3ead-4344-969e-9b7b56d0be62"
            }
          },
          {
            "frame": 0.6166666666666667,
            "value": {
              "__uuid__": "b0373e00-8809-4abb-9548-5e04f39f61f8"
            }
          },
          {
            "frame": 0.6333333333333333,
            "value": {
              "__uuid__": "8b458e50-ea66-43dc-9961-6b5956d5eb6a"
            }
          },
          {
            "frame": 0.65,
            "value": {
              "__uuid__": "03ec9a69-4916-4fdf-85ba-e7fc2a483354"
            }
          }
        ]
      }
    }
  },
  "events": []
}