{
    "parameters": {
        "initialState": "Idle",
        "lifecycleState": "Idle",
        "states": {
            "Idle": {
                "parameters": {
                    "name": "Idle"
                }
            },
            "Start": {
                "parameters": {
                    "name": "Start"
                }
            },
            "Spinning": {
                "parameters": {
                    "name": "Spinning"
                }
            },
            "End": {
                "parameters": {
                    "name": "End"
                }
            }
        },
        "transitions": [
            {
                "parameters": {
                    "fromState": "Idle",
                    "toState": "Start",
                    "event": "Idle->Start"
                }
            },
            {
                "parameters": {
                    "fromState": "Start",
                    "toState": "Spinning",
                    "event": "Start->Spinning",
                    "predicates": [
                        {
                            "type": "TruePredicate"
                        }
                    ]
                }
            },
            {
                "parameters": {
                    "fromState": "Spinning",
                    "toState": "End",
                    "event": "Spinning->End",
                    "predicates": [
                        {
                            "type": "TruePredicate"
                        }
                    ]
                }
            },
            {
                "parameters": {
                    "fromState": "End",
                    "toState": "Idle",
                    "event": "End->Idle",
                    "predicates": [
                        {
                            "type": "TruePredicate"
                        }
                    ]
                }
            }
        ]
    }
}